0,Medium Pistol,2,6,2,12,12,Handgun
1,Heavy Pistol,3,6,2,8,8,Handgun
2,Very Heavy Pistol,4,6,1,8,8,Handgun
3,SMG,2,6,1,30,30,Handgun
4,Heavy SMG,3,6,1,40,40,Handgun
5,Shotgun,5,6,1,4,4,Shoulder Arms
6,Assault Rifle,5,6,1,25,25,Shoulder Arms
7,Sniper Rifle,5,6,1,4,4,Shoulder Arms
8,Bows and Crossbows,4,6,1,1,1,Archery
9,Grenade Launchers,6,6,1,2,2,Heavy Weapons
10,Rocket Launchers,8,6,1,1,1,Heavy Weapons